<svg width="36" height="36" viewBox="0 0 36 36" fill="none" xmlns="http://www.w3.org/2000/svg">
<g clip-path="url(#clip0_555_286)">
<path fill-rule="evenodd" clip-rule="evenodd" d="M22.0615 13.0614L32.5006 2.62227L24.2759 2.62227L24.167 0.833071L35.5552 0.833069L35.5552 12.2212L33.766 12.1124L33.766 3.88762L23.3268 14.3268L22.0615 13.0614ZM13.9387 22.9386L3.49957 33.3777L11.7243 33.3777L11.8332 35.1669L0.445021 35.1669L0.445022 23.7788L2.23423 23.8876L2.23422 32.1124L12.6734 21.6733L13.9387 22.9386Z" fill="white"/>
</g>
<defs>
<clipPath id="clip0_555_286">
<rect width="36" height="36" fill="white" transform="translate(36) rotate(90)"/>
</clipPath>
</defs>
</svg>
