<svg width="11" height="21" viewBox="0 0 11 21" fill="none" xmlns="http://www.w3.org/2000/svg">
<path d="M1.56098 20.9973C1.1969 20.998 0.844055 20.8762 0.563708 20.6531C0.405923 20.5274 0.275496 20.3731 0.179895 20.199C0.0842939 20.0248 0.0253982 19.8343 0.00658111 19.6383C-0.012236 19.4422 0.00939553 19.2446 0.0702362 19.0566C0.131077 18.8686 0.22993 18.694 0.361137 18.5427L7.34205 10.5205L0.610457 2.48335C0.48102 2.33026 0.38436 2.1541 0.326032 1.96501C0.267704 1.77592 0.248859 1.57763 0.27058 1.38152C0.292301 1.18541 0.354158 0.99536 0.452598 0.822289C0.551038 0.649218 0.684119 0.496539 0.844192 0.373029C1.00542 0.236776 1.19422 0.134003 1.39876 0.0711587C1.6033 0.00831445 1.81915 -0.0132433 2.03278 0.0078373C2.2464 0.0289179 2.45318 0.0921822 2.64014 0.19366C2.82711 0.295138 2.99021 0.432638 3.11922 0.597531L10.6455 9.57762C10.8747 9.84542 11 10.1813 11 10.528C11 10.8747 10.8747 11.2106 10.6455 11.4784L2.85432 20.4585C2.698 20.6396 2.49943 20.7828 2.27472 20.8764C2.05 20.97 1.80548 21.0114 1.56098 20.9973Z" fill="#010049"/>
</svg>
